{
    "scripts/pre-01-remap.ipynb": [
        {
            "input": [
                "data/original/ACTIVSg2000.zip",
                "data/original/Electric_Substations.geojson"
            ],
            "output": [
                "data/preprocecessed/head.json",
                "data/preprocecessed/tail.json",
                "data/preprocecessed/head_to_tail.json"
            ]
        }
    ],
    "scripts/pre-02-specs-grid.ipynb": [
        {
            "input": [
                "data/original/ACTIVSg2000.zip"
            ],
            "output": [
                "data/preprocessed/specs-ACTIVSg2000.yaml"
            ]
        }
    ],
    "scripts/pre-03-specs-grid-reduced.ipynb": [
        {
            "input": [
                "data/original/reduction.zip",
                "data/original/ACTIVSg2000.zip"
            ],
            "output": [
                "data/preprocessed/specs-reduced-ACTIVSg2000.yaml"
            ]
        }
    ],
    "scripts/pre-04-clean-flood-data.ipynb": [
        {
            "input": [
                "data/original/[casestudy].csv",
                "data/original/[casestudy].zip"
            ],
            "output": [
                "data/preprocessed/[casestudy]-raw-ts-meters.csv",
                "data/preprocessed/[casestudy]-clean-meters.csv"
            ]
        }
    ],
    "scripts/pre-05-specs-flooding.ipynb": [
        {
            "input": [
                "data/original/ACTIVSg2000.zip",
                "data/preprocessed/specs-reduced-ACTIVSg2000.yaml",
                "data/preprocessed/[casestudy]-clean-meters.csv"
            ],
            "output": [
                "data/preprocessed/specs-[casestudy].yaml",
                "data/preprocessed/specs-[casestudy]-ev.yaml",
                "data/preprocessed/specs-[casestudy]-mv.yaml"
            ]
        }
    ],
    "scripts/pre-06-model-options.ipynb": [
        {
            "input": [
            ],
            "output": [
                "data/preprocessed/specs-[powerflow]-options.yaml"
            ]
        }
    ],
    "scripts/pre-07-big-M.ipynb": [
        {
            "input": [
                "data/preprocessed/specs-reduced-ACTIVSg2000.yaml",
                "data/preprocessed/specs-[powerflow]-options.yaml"
            ],
            "output": [
                "data/preprocessed/specs-[powerflow]-bigM.yaml"
            ]
        }
    ],
    "scripts/pre-08-merge.ipynb": [
        {
            "input": [
                "data/preprocessed/specs-reduced-ACTIVSg2000.yaml",
                "data/preprocessed/specs-[casestudy].yaml",
                "data/preprocessed/specs-[powerflow]-options.yaml",
                "data/preprocessed/specs-[powerflow]-bigM.yaml"
            ],
            "output": [
                "data/preprocessed/complete-[casestudy]-[powerflow].yaml"
            ]
        },
        {
            "input": [
                "data/preprocessed/specs-reduced-ACTIVSg2000.yaml",
                "data/preprocessed/specs-[casestudy]-ev.yaml",
                "data/preprocessed/specs-[powerflow]-options.yaml",
                "data/preprocessed/specs-[powerflow]-bigM.yaml"
            ],
            "output": [
                "data/preprocessed/complete-[casestudy]-ev-[powerflow].yaml"
            ]
        },
        {
            "input": [
                "data/preprocessed/specs-reduced-ACTIVSg2000.yaml",
                "data/preprocessed/specs-[casestudy]-mv.yaml",
                "data/preprocessed/specs-[powerflow]-options.yaml",
                "data/preprocessed/specs-[powerflow]-bigM.yaml"
            ],
            "output": [
                "data/preprocessed/complete-[casestudy]-mv-[powerflow].yaml"
            ]
        }
    ],
    "scripts/opt-01-heur-sol-algo.ipynb": [
        {
            "input": [
                "data/preprocessed/specs-reduced-ACTIVSg2000.yaml",
                "data/preprocessed/specs-[casestudy].yaml"
            ],
            "output": [
                "results/heuristic/stochastic/solutions-[casestudy]-r[r_hat].yaml",
                "results/heuristic/stochastic/times-[casestudy]-r[r_hat].yaml",
                "results/heuristic/robust/solutions-[casestudy]-r[r_hat].yaml",
                "results/heuristic/robust/times-[casestudy]-r[r_hat].yaml"
            ]
        }
    ],
    "scripts/opt-02-heur-sol-eval.ipynb": [
        {
            "input": [
                "data/preprocessed/complete-[casestudy]-[powerflow].yaml",
                "results/heuristic/stochastic/solutions-[casestudy]-r[r_hat].yaml"
            ],
            "output": [
                "results/heuristic/stochastic/perf-[powerflow]-[casestudy]-[omega]-r[r_hat].yaml"
            ]
        },
        {
            "input": [
                "data/preprocessed/complete-[casestudy]-[powerflow].yaml",
                "results/heuristic/robust/solutions-[casestudy]-r[r_hat].yaml"
            ],
            "output": [
                "results/heuristic/robust/perf-[powerflow]-[casestudy]-[omega]-r[r_hat].yaml"
            ]
        }
    ],
    "scripts/opt-03-ws.ipynb": [
        {
            "input": [
                "data/preprocessed/complete-[casestudy]-[powerflow].yaml"
            ],
            "output": [
                "results/ws/[casestudy]-[powerflow]-f[f]-omega[omega]-r[r_hat].zip"
            ]
        }
    ],
    "scripts/opt-04-ev.ipynb": [
        {
            "input": [
                "data/preprocessed/complete-[casestudy]-ev-[powerflow].yaml"
            ],
            "output": [
                "results/ev/[casestudy]-[powerflow]-f[f]-r[r_hat].zip"
            ]
        }
    ],
    "scripts/opt-05-eev.ipynb": [
        {
            "input": [
                "data/preprocessed/complete-[casestudy]-[powerflow].yaml",
                "results/ev/[casestudy]-[powerflow]-f[f]-r[r_hat].zip"
            ],
            "output": [
                "results/eev/[casestudy]-[powerflow]-f[f]-r[r_hat].zip"
            ]
        }
    ],
    "scripts/opt-06-mv.ipynb": [
        {
            "input": [
                "data/preprocessed/complete-[casestudy]-mv-[powerflow].yaml"
            ],
            "output": [
                "results/mv/[casestudy]-[powerflow]-f[f]-r[r_hat].zip"
            ]
        }
    ],
    "scripts/opt-07-mmv.ipynb": [
        {
            "input": [
                "data/preprocessed/complete-[casestudy]-[powerflow].yaml",
                "results/mv/[casestudy]-[powerflow]-f[f]-r[r_hat].zip"
            ],
            "output": [
                "results/mmv/[casestudy]-[powerflow]-f[f]-r[r_hat].zip"
            ]
        }
    ],
    "scripts/opt-08-sp-ro.ipynb": [
        {
            "input": [
                "data/preprocessed/complete-[casestudy]-[powerflow].yaml",
                "results/heuristic/stochastic/solutions-[casestudy]-r[r_hat].yaml",
                "results/heuristic/stochastic/perf-[powerflow]-[casestudy]-[omega]-r[r_hat].yaml"
            ],
            "output": [
                "results/sp/[casestudy]-[powerflow]-f[f]-r[r_hat].zip"
            ]
        },
        {
            "input": [
                "data/preprocessed/complete-[casestudy]-[powerflow].yaml",
                "results/heuristic/robust/solutions-[casestudy]-r[r_hat].yaml",
                "results/heuristic/robust/perf-[powerflow]-[casestudy]-[omega]-r[r_hat].yaml"
            ],
            "output": [
                "results/ro/[casestudy]-[powerflow]-f[f]-r[r_hat].zip"
            ]
        }
    ],
    "scripts/opt-09-no-good-cut.ipynb": [
        {
            "input": [
                "data/preprocessed/complete-[casestudy]-[powerflow].yaml",
                "results/heuristic/stochastic/solutions-[casestudy]-r[r_hat].yaml",
                "results/heuristic/stochastic/perf-[powerflow]-[casestudy]-[omega]-r[r_hat].yaml",
                "results/sp/[casestudy]-[powerflow]-f[f]-r[r_hat].zip"
            ],
            "output": [
                "results/sp-ng/[casestudy]-[powerflow]-f[f]-r[r_hat].zip"
            ]
        },
        {
            "input": [
                "data/preprocessed/complete-[casestudy]-[powerflow].yaml",
                "results/heuristic/stochastic/solutions-[casestudy]-r[r_hat].yaml",
                "results/heuristic/stochastic/perf-[powerflow]-[casestudy]-[omega]-r[r_hat].yaml",
                "results/ro/[casestudy]-[powerflow]-f[f]-r[r_hat].zip"
            ],
            "output": [
                "results/ro-ng/[casestudy]-[powerflow]-f[f]-r[r_hat].zip"
            ]
        }
    ],
    "scripts/opt-10-cross-powerflow-eval.ipynb": [
        {
            "input": [
                "data/preprocessed/complete-[casestudy]-[powerflow].yaml",
                "results/sp/[casestudy]-[powerflow-A]-f[f]-r[r_hat].zip",
                "results/sp/[casestudy]-[powerflow-B]-f[f]-r[r_hat].zip"
            ],
            "output": []
        },
        {
            "input": [
                "data/preprocessed/complete-[casestudy]-[powerflow].yaml",
                "results/ro/[casestudy]-[powerflow-A]-f[f]-r[r_hat].zip",
                "results/ro/[casestudy]-[powerflow-B]-f[f]-r[r_hat].zip"
            ],
            "output": []
        }
    ],
    "scripts/opt-11-cross-uncertainty-eval.ipynb": [
        {
            "input": [
                "data/preprocessed/complete-[casestudy]-[powerflow].yaml",
                "results/sp/[casestudy]-[powerflow]-f[f]-r[r_hat].zip"
            ],
            "output": [
                "results/spsol-romod/[casestudy]-[powerflow]-f[f]-r[r_hat].zip"
            ]
        },
        {
            "input": [
                "data/preprocessed/complete-[casestudy]-[powerflow].yaml",
                "results/ro/[casestudy]-[powerflow]-f[f]-r[r_hat].zip"
            ],
            "output": [
                "results/rosol-spmod/[casestudy]-[powerflow]-f[f]-r[r_hat].zip"
            ]
        }
    ],
    "scripts/opt-12-acpf-eval.ipynb": [
        {
            "input": [
                "data/preprocessed/complete-[casestudy]-[powerflow].yaml",
                "results/sp/[casestudy]-[powerflow]-f[f]-r[r_hat].zip"
            ],
            "output": [
                "results/acpf/results/stochastic-[casestudy]-[powerflow]-f[f]-r[r_hat].json"
            ]
        },
        {
            "input": [
                "data/preprocessed/complete-[casestudy]-[powerflow].yaml",
                "results/ro/[casestudy]-[powerflow]-f[f]-r[r_hat].zip"
            ],
            "output": [
                "results/acpf/results/robust-[casestudy]-[powerflow]-f[f]-r[r_hat].json"
            ]
        }
    ],
    "scripts/post-01-consolidate.ipynb": [
        {
            "input": [
                "results/sp/[casestudy]-[powerflow]-f[f]-r[r_hat].zip",
                "results/ro/[casestudy]-[powerflow]-f[f]-r[r_hat].zip",
                "results/eev/[casestudy]-[powerflow]-f[f]-r[r_hat].zip",
                "results/mmv/[casestudy]-[powerflow]-f[f]-r[r_hat].zip",
                "results/ws/[casestudy]-[powerflow]-f[f]-omega[omega]-r[r_hat].zip",
                "results/heuristic/stochastic/solutions-[casestudy]-r[r_hat].yaml",
                "results/heuristic/stochastic/perf-[powerflow]-[casestudy]-[omega]-r[r_hat].yaml"
            ],
            "output": [
                "results/consolidated/obj-[casestudy]-r[r_hat].csv",
                "results/consolidated/x-[casestudy]-r[r_hat].csv",
                "results/consolidated/gamma-[casestudy]-r[r_hat].csv",
                "results/consolidated/gamma_under-[casestudy]-r[r_hat].csv",
                "results/consolidated/gamma_over-[casestudy]-r[r_hat].csv"
            ]
        }
    ],
    "scripts/iise-01-nomenclature.ipynb": [
        {
            "input": [],
            "output": [
                "results/figures/iise-nomenclature.jpg",
                "results/figures/iise-nomenclature.eps"
            ]
        }
    ],
    "scripts/iise-02-remap-and-reduce.ipynb": [
        {
            "input": [
                "data/original/ACTIVSg2000.zip",
                "data/original/WBD_12_HU2_Shape.zip",
                "data/original/geoBoundaries-MEX-ADM1-all.zip",
                "data/oroginal/geoBoundaries-USA-ADM1-all.zip",
                "data/preprocessed/specs-reduced-ACTIVSg2000.yaml",
                "data/preprocecessed/head.json",
                "data/preprocecessed/tail.json",
                "data/preprocecessed/head_to_tail.json"
            ],
            "output": [
                "results/figures/iise-remap.jpg",
                "results/figures/iise-remap.eps",
                "results/figures/iise-original.jpg",
                "results/figures/iise-original.eps",
                "results/figures/iise-reduced.jpg",
                "results/figures/iise-reduced.eps",
                "results/figures/iise-huc12.jpg",
                "results/figures/iise-huc12.eps"
            ]
        }
    ],
    "scripts/iise-03-mitigation-levels.ipynb": [
        {
            "input": [],
            "output": [
                "results/figures/iise-mitigation-levels.jpg",
                "results/figures/iise-mitigation-levels.eps"
            ]
        }
    ],
    "scripts/iise-04-harvey-landfall-distribution.ipynb": [
        {
            "input": [
                "data/oroginal/geoBoundaries-USA-ADM1-all.zip",
                "data/original/2017082400_nwm_med_range_storm_center.csv"
            ],
            "output": [
                "results/figures/iise-harvey-landfall-distribution.jpg",
                "results/figures/iise-harvey-landfall-distribution.eps"
            ]
        }
    ],
    "scripts/iise-05-flood-and-mitigation-maps.ipynb": [
        {
            "input": [
                "data/preprocecessed/head_to_tail.json",
                "data/original/geoBoundaries-MEX-ADM1-all.zip",
                "data/oroginal/geoBoundaries-USA-ADM1-all.zip",
                "data/preprocessed/complete-[casestudy]-[powerflow].yaml",
                "results/sp/[casestudy]-[powerflow]-f[f]-r[r_hat].zip"
            ],
            "output": [
                "results/figures/iise-mitigation-[casestudy]-[powerflow]-stochastic-r[r_hat]-f[f].jpg"
            ]
        },
        {
            "input": [
                "data/preprocecessed/head_to_tail.json",
                "data/original/geoBoundaries-MEX-ADM1-all.zip",
                "data/oroginal/geoBoundaries-USA-ADM1-all.zip",
                "data/preprocessed/complete-[casestudy]-[powerflow].yaml",
                "results/ro/[casestudy]-[powerflow]-f[f]-r[r_hat].zip"
            ],
            "output": [
                "results/figures/iise-mitigation-[casestudy]-[powerflow]-robust-r[r_hat]-f[f].jpg"
            ]
        },
        {
            "input": [
                "data/preprocecessed/head_to_tail.json",
                "data/original/geoBoundaries-MEX-ADM1-all.zip",
                "data/oroginal/geoBoundaries-USA-ADM1-all.zip",
                "data/preprocessed/complete-[casestudy]-[powerflow].yaml"
            ],
            "output": [
                "results/figures/iise-flooding-[casestudy].jpg"
            ]
        }
    ],
    "scripts/iise-06-uncertainty-heatmap.ipynb": [
        {
            "input": [
                "data/preprocessed/specs-[casestudy].yaml",
                "data/preprocessed/specs-[casestudy]-ev.yaml",
                "data/preprocessed/specs-[casestudy]-mv.yaml"
            ],
            "output": [
                "results/figures/iise-[casestudy]-uncertainty-heatmap.jpg"
            ]
        }
    ],
    "scripts/iise-07-substation-size.ipynb": [
        {
            "input": [
                "data/preprocessed/specs-[casestudy].yaml"
            ],
            "output": []
        }
    ],
    "scripts/iise-08-solution-times.ipynb": [
        {
            "input": [
                "results/consolidated/times-r[r_hat].txt",
                "results/heuristic/stochastic/times-[casestudy]-r[r_hat].yaml"
            ],
            "output": [
                "results/figures/iise-solution-times.jpg",
                "results/figures/iise-solution-times.eps"
            ],
            "note": "Gurobi solver time data was manually collected and compiled into a file."
        }
    ],
    "scripts/iise-09-objective-and-bounds.ipynb": [
        {
            "input": [
                "results/consolidated/obj-[casestudy]-r[r_hat].csv"
            ],
            "output": [
                "results/figures/iise-obj-bnds.jpg",
                "results/figures/iise-obj-bnds.eps"
            ]
        }
    ],
    "scripts/iise-10-x-illustration.ipynb": [
        {
            "input": [
                "data/preprocessed/specs-[casestudy].yaml",
                "results/sp/[casestudy]-[powerflow]-f[f]-r[r_hat].zip"
            ],
            "output": [
                "results/figures/iise-[casestudy]-stochastic-solutions.jpg"
            ]
        },
        {
            "input": [
                "data/preprocessed/specs-[casestudy].yaml",
                "results/ro/[casestudy]-[powerflow]-f[f]-r[r_hat].zip"
            ],
            "output": [
                "results/figures/iise-[casestudy]-robust-solutions.jpg"
            ]
        }
    ],
    "scripts/iise-11-improvement.ipynb": [
        {
            "input": [
                "data/preprocessed/complete-[casestudy]-[powerflow].yaml",
                "results/consolidated/x-[casestudy]-r[r_hat].csv"
            ],
            "output": [
                "results/figures/iise-improvement.jpg"
            ]
        }
    ],
    "scripts/iise-12-model-diagram.ipynb": [
        {
            "input": [],
            "output": [
                "results/figures/iise-model-diagram.jpg",
                "results/figures/iise-model-diagram.eps"
            ]
        }
    ],
    "scripts/iise-13-bound-data.ipynb": [
        {
            "input": [
                "results/consolidated/obj-[casestudy]-r[r_hat].csv"
            ],
            "output": []
        }
    ]
}
